//if(author == null || actors == null) { displayErrorMessage("Missing author or actor"); return; }
            //int? checkAuth()
            //{
            //    SearchDatabase search = new SearchDatabase(author.Name);
            //    List<Person> tempAuth = search.authorByName();
            //    if (tempAuth != null)
            //    {
            //        return tempAuth[0].Id;
            //    }
            //    return null;
            //}
            //int? checkAct(Person actor)
            //{
            //    SearchDatabase search = new SearchDatabase(actor.Name);
            //    List<Person> tempActor = search.actorByName();
            //    if (tempActor != null)
            //    {
            //        return tempActor[0].Id;
            //    }
            //    return null;
            //}

            //SearchDatabase searchExistingMovie = new SearchDatabase(CreateEntryClipboard.name);
            //List<Movie> nullOrExistingMovie = searchExistingMovie.movieByName();
            //if(nullOrExistingMovie != null)
            //{
            //    MessageBox.Show($"A movie with the name {CreateEntryClipboard.name} does already exist. Movies cant be overwritten, they need to be deleted first.");
            //    return;
            //}

            //int? authorID = checkAuth();
            //List<int?> actorIDs = new List<int?>();
            //foreach (Person actor in actors)
            //{
            //    actorIDs.Add(checkAct(actor));
            //}


            //if(author != null && actors != null)
            //{
            //    try
            //    {
            //        if (authorID == null) {
            //            Database.insertAuthor(author);
            //            SearchDatabase searchAuthor = new SearchDatabase(author.Name);
            //            authorID = searchAuthor.authorByName()[0].Id;
            //        }

            //        //TEMPORARLY INHIBITED. NEED TO MAKE UC FOR ADDING A PICTURE, THEN PROCESS IT TROUGHT THE CONSTRUCTOR.//
            //        //Movie movieToCreate = new Movie(CreateEntryClipboard.name, CreateEntryClipboard.description, CreateEntryClipboard.reldate, CreateEntryClipboard.rating, (int)authorID, CreateEntryClipboard.length);
            //        //Database.insertMovie(movieToCreate);

            //        SearchDatabase search = new SearchDatabase(CreateEntryClipboard.name);
            //        int movieID = search.movieByName()[0].ID;


            //        if(actors.Count == actorIDs.Count)
            //        {
            //            for (int i = 0; i < actors.Count; i++)
            //            {
            //                int? idOfInsertedActor = null;
            //                if (actorIDs[i] == null) {
            //                    Database.insertActor(actors[i]);
            //                    idOfInsertedActor = checkAct(actors[i]);
            //                }
            //                if (idOfInsertedActor != null) { Database.insertMovActLink(movieID, (int)idOfInsertedActor); }
            //                else
            //                {
            //                    displayErrorMessage("Error at retrieving newly created actor-id");
            //                }
            //            }
            //        }
            //    }
            //    catch
            //    {
            //        displayErrorMessage("Error at inserting entrys in multiple tables");
            //    }
            //}
            //closeUsercontrol();
