<?xml version="1.0" encoding="UTF-8" standalone="no"?>
<!-- Created with Inkscape (http://www.inkscape.org/) -->

<svg
   width="85.024002mm"
   height="85.919327mm"
   viewBox="0 0 85.024002 85.919327"
   version="1.1"
   id="svg845"
   inkscape:version="1.1.2 (b8e25be833, 2022-02-05)"
   sodipodi:docname="Login.svg"
   inkscape:export-filename="C:\Users\nolan.collet.INF\source\repos\MovieProject\MovieProject\Icons\Supersmall\LoginIcon_super.png"
   inkscape:export-xdpi="7.3906536"
   inkscape:export-ydpi="7.3906536"
   xmlns:inkscape="http://www.inkscape.org/namespaces/inkscape"
   xmlns:sodipodi="http://sodipodi.sourceforge.net/DTD/sodipodi-0.dtd"
   xmlns="http://www.w3.org/2000/svg"
   xmlns:svg="http://www.w3.org/2000/svg">
  <sodipodi:namedview
     id="namedview847"
     pagecolor="#ffffff"
     bordercolor="#666666"
     borderopacity="1.0"
     inkscape:pageshadow="2"
     inkscape:pageopacity="0.0"
     inkscape:pagecheckerboard="0"
     inkscape:document-units="mm"
     showgrid="false"
     fit-margin-top="0"
     fit-margin-left="0"
     fit-margin-right="0"
     fit-margin-bottom="0"
     inkscape:zoom="0.90583672"
     inkscape:cx="141.30582"
     inkscape:cy="231.27788"
     inkscape:window-width="1347"
     inkscape:window-height="970"
     inkscape:window-x="-1726"
     inkscape:window-y="72"
     inkscape:window-maximized="0"
     inkscape:current-layer="layer1" />
  <defs
     id="defs842" />
  <g
     inkscape:label="Ebene 1"
     inkscape:groupmode="layer"
     id="layer1"
     transform="translate(-66.98712,-193.73157)">
    <path
       style="fill:#000000;fill-opacity:1;stroke:none;stroke-width:0.264583px;stroke-linecap:butt;stroke-linejoin:miter;stroke-opacity:1"
       d="m 84.680109,229.25591 v -35.52434 l 67.331011,5.78303 v 66.09179 l -66.917935,14.04451 -0.413076,-32.63282 4.714913,-0.38802 0.559116,26.38659 56.687032,-11.95407 0.41307,-56.5911 -57.321317,-4.37271 -0.09593,27.91792 z"
       id="path985"
       sodipodi:nodetypes="ccccccccccccc"
       inkscape:export-filename="C:\Users\nolan.collet.INF\source\repos\MovieProject\Icons\PNG\LoginIcon_25_black.png"
       inkscape:export-xdpi="7.3906536"
       inkscape:export-ydpi="7.3906536" />
    <path
       style="fill:#000000;fill-opacity:1;stroke:none;stroke-width:0.264583px;stroke-linecap:butt;stroke-linejoin:miter;stroke-opacity:1"
       d="m 67.331015,237.93046 40.948705,-11.27398 2.13624,-18.30053 28.74836,25.03499 -25.37289,26.63718 -6.77598,-16.94032 -39.951466,1.10963 c 0.08901,-2.08899 -0.368523,-6.9107 0.267031,-6.26697 z"
       id="path987"
       sodipodi:nodetypes="cccccccc"
       inkscape:export-filename="C:\Users\nolan.collet.INF\source\repos\MovieProject\Icons\PNG\LoginIcon_25_black.png"
       inkscape:export-xdpi="7.3906536"
       inkscape:export-ydpi="7.3906536" />
  </g>
</svg>
