<?xml version="1.0" encoding="UTF-8" standalone="no"?>
<!-- Created with Inkscape (http://www.inkscape.org/) -->

<svg
   width="133.06621mm"
   height="89.32515mm"
   viewBox="0 0 133.06621 89.32515"
   version="1.1"
   id="svg5"
   inkscape:version="1.1.2 (b8e25be833, 2022-02-05)"
   sodipodi:docname="OpenFile.svg"
   inkscape:export-filename="C:\Users\nolan.collet.INF\source\repos\m-project-master\images\icons\PNG\OpenfileIcon_60_black.png"
   inkscape:export-xdpi="17.061264"
   inkscape:export-ydpi="17.061264"
   xmlns:inkscape="http://www.inkscape.org/namespaces/inkscape"
   xmlns:sodipodi="http://sodipodi.sourceforge.net/DTD/sodipodi-0.dtd"
   xmlns="http://www.w3.org/2000/svg"
   xmlns:svg="http://www.w3.org/2000/svg">
  <sodipodi:namedview
     id="namedview7"
     pagecolor="#ffffff"
     bordercolor="#666666"
     borderopacity="1.0"
     inkscape:pageshadow="2"
     inkscape:pageopacity="0.0"
     inkscape:pagecheckerboard="0"
     inkscape:document-units="mm"
     showgrid="false"
     inkscape:snap-global="false"
     fit-margin-top="0"
     fit-margin-left="0"
     fit-margin-right="0"
     fit-margin-bottom="0"
     inkscape:zoom="0.90583672"
     inkscape:cx="308.5545"
     inkscape:cy="155.65719"
     inkscape:window-width="1920"
     inkscape:window-height="1137"
     inkscape:window-x="-8"
     inkscape:window-y="-8"
     inkscape:window-maximized="1"
     inkscape:current-layer="layer1" />
  <defs
     id="defs2" />
  <g
     inkscape:label="Ebene 1"
     inkscape:groupmode="layer"
     id="layer1"
     transform="translate(-46.544305,-135.10658)">
    <path
       style="fill:#5f5c5f;fill-opacity:1;stroke:#000000;stroke-width:0.264583px;stroke-linecap:butt;stroke-linejoin:miter;stroke-opacity:1"
       d="M 179.18746,222.11473 50.372976,221.50764 50.089488,143.1141 c 0,0 -0.125303,-2.58427 2.993894,-5.47805 2.985935,-2.77014 7.700626,-2.36694 7.700626,-2.36694 l 118.693772,-0.0302 z"
       id="path1367"
       sodipodi:nodetypes="cccsccc" />
  </g>
  <g
     inkscape:groupmode="layer"
     id="layer2"
     inkscape:label="Ebene 2"
     transform="translate(-46.544305,-135.10658)">
    <path
       style="fill:#282a2b;fill-opacity:1;stroke:#000000;stroke-width:0.264583px;stroke-linecap:butt;stroke-linejoin:miter;stroke-opacity:1"
       d="m 46.677328,224.29902 0.413075,-75.17941 51.634213,-0.41308 c 0,0 10.810464,-0.31581 10.572104,-10.88191 -10e-4,-0.0554 1.69755,-0.001 17.72255,-0.006 l 39.22888,0.0953 10.5474,0.0534 v 85.91933 z"
       id="path857"
       sodipodi:nodetypes="cccsccccc" />
  </g>
</svg>
