<?xml version="1.0" encoding="UTF-8" standalone="no"?>
<!-- Created with Inkscape (http://www.inkscape.org/) -->

<svg
   width="131.92485mm"
   height="116.10022mm"
   viewBox="0 0 131.92485 116.10022"
   version="1.1"
   id="svg1355"
   inkscape:export-filename="J:\Lernende\Collet_Nolan\Arbeitsordner\_Abklaerung\CsUndSql\Reload.png"
   inkscape:export-xdpi="5.7760158"
   inkscape:export-ydpi="5.7760158"
   inkscape:version="1.1.2 (b8e25be833, 2022-02-05)"
   sodipodi:docname="Reload.svg"
   xmlns:inkscape="http://www.inkscape.org/namespaces/inkscape"
   xmlns:sodipodi="http://sodipodi.sourceforge.net/DTD/sodipodi-0.dtd"
   xmlns="http://www.w3.org/2000/svg"
   xmlns:svg="http://www.w3.org/2000/svg">
  <sodipodi:namedview
     id="namedview1357"
     pagecolor="#ffffff"
     bordercolor="#666666"
     borderopacity="1.0"
     inkscape:pageshadow="2"
     inkscape:pageopacity="0.0"
     inkscape:pagecheckerboard="0"
     inkscape:document-units="mm"
     showgrid="false"
     fit-margin-top="0"
     fit-margin-left="0"
     fit-margin-right="0"
     fit-margin-bottom="0"
     inkscape:zoom="0.64052329"
     inkscape:cx="288.82634"
     inkscape:cy="281.80084"
     inkscape:window-width="1347"
     inkscape:window-height="970"
     inkscape:window-x="-1621"
     inkscape:window-y="68"
     inkscape:window-maximized="0"
     inkscape:current-layer="layer1" />
  <defs
     id="defs1352" />
  <g
     inkscape:label="Ebene 1"
     inkscape:groupmode="layer"
     id="layer1"
     transform="translate(-28.32205,-74.002263)">
    <path
       style="fill:#000000;fill-opacity:1;stroke:#000000;stroke-width:0.264583px;stroke-linecap:butt;stroke-linejoin:miter;stroke-opacity:1"
       d="m 50.808067,163.99026 22.719053,-21.8929 -16.522948,-25.61057 30.980527,-7.43533 5.783033,12.80528 16.109878,-23.95827 -33.0459,-23.545202 7.022254,19.827536 -55.351878,4.956887 z"
       id="path1454"
       inkscape:export-filename="C:\Users\nolan.collet.INF\source\repos\MovieProject\Icons\PNG\ReloadIcon_26_black.png"
       inkscape:export-xdpi="5.7760158"
       inkscape:export-ydpi="5.7760158" />
    <path
       style="fill:#000000;fill-opacity:1;stroke:#000000;stroke-width:0.264583px;stroke-linecap:butt;stroke-linejoin:miter;stroke-opacity:1"
       d="m 137.76087,100.11449 -22.71905,21.8929 16.52295,25.61057 -30.98053,7.43533 -5.783029,-12.80528 -16.10988,23.95827 33.045899,23.5452 -7.02225,-19.82754 55.35188,-4.95688 z"
       id="path1454-1"
       inkscape:export-filename="C:\Users\nolan.collet.INF\source\repos\MovieProject\Icons\PNG\ReloadIcon_26_black.png"
       inkscape:export-xdpi="5.7760158"
       inkscape:export-ydpi="5.7760158" />
  </g>
</svg>
