<?xml version="1.0" encoding="UTF-8" standalone="no"?>
<!-- Created with Inkscape (http://www.inkscape.org/) -->

<svg
   width="154.79195mm"
   height="144.99899mm"
   viewBox="0 0 154.79195 144.99899"
   version="1.1"
   id="svg5"
   inkscape:version="1.1.2 (b8e25be833, 2022-02-05)"
   sodipodi:docname="Search.svg"
   inkscape:export-filename="C:\Users\nolan.collet.INF\source\repos\MovieProject\Icons\PNG\SearchIcon_23_black.png"
   inkscape:export-xdpi="4.0289931"
   inkscape:export-ydpi="4.0289931"
   xmlns:inkscape="http://www.inkscape.org/namespaces/inkscape"
   xmlns:sodipodi="http://sodipodi.sourceforge.net/DTD/sodipodi-0.dtd"
   xmlns="http://www.w3.org/2000/svg"
   xmlns:svg="http://www.w3.org/2000/svg">
  <sodipodi:namedview
     id="namedview7"
     pagecolor="#ffffff"
     bordercolor="#666666"
     borderopacity="1.0"
     inkscape:pageshadow="2"
     inkscape:pageopacity="0.0"
     inkscape:pagecheckerboard="0"
     inkscape:document-units="mm"
     showgrid="false"
     inkscape:snap-global="false"
     inkscape:zoom="0.45291836"
     inkscape:cx="13.247421"
     inkscape:cy="398.52657"
     inkscape:window-width="1347"
     inkscape:window-height="970"
     inkscape:window-x="-1751"
     inkscape:window-y="60"
     inkscape:window-maximized="0"
     inkscape:current-layer="layer1"
     fit-margin-top="0"
     fit-margin-left="0"
     fit-margin-right="0"
     fit-margin-bottom="0" />
  <defs
     id="defs2">
    <inkscape:path-effect
       effect="bspline"
       id="path-effect1068"
       is_visible="true"
       lpeversion="1"
       weight="33.333333"
       steps="2"
       helper_size="0"
       apply_no_weight="true"
       apply_with_weight="true"
       only_selected="false" />
    <inkscape:path-effect
       effect="bspline"
       id="path-effect1031"
       is_visible="true"
       lpeversion="1"
       weight="33.333333"
       steps="2"
       helper_size="0"
       apply_no_weight="true"
       apply_with_weight="true"
       only_selected="false" />
    <inkscape:path-effect
       effect="bspline"
       id="path-effect1068-6"
       is_visible="true"
       lpeversion="1"
       weight="33.333333"
       steps="2"
       helper_size="0"
       apply_no_weight="true"
       apply_with_weight="true"
       only_selected="false" />
  </defs>
  <g
     inkscape:label="Ebene 1"
     inkscape:groupmode="layer"
     id="layer1"
     transform="translate(2.4381273,-84.750491)">
    <ellipse
       style="fill:none;stroke:#000000;stroke-width:9.77299;stroke-opacity:1"
       id="path846"
       cx="98.311546"
       cy="136.31432"
       rx="49.155773"
       ry="46.67733"
       inkscape:export-filename="J:\Lernende\Collet_Nolan\Arbeitsordner\_Abklaerung\CsUndSql\Other\SearchIconMainOnly.png"
       inkscape:export-xdpi="4.1022806"
       inkscape:export-ydpi="4.1022806" />
    <rect
       style="fill:none;stroke:#000000;stroke-width:8.1263;stroke-opacity:1"
       id="rect914"
       width="14.194745"
       height="67.722092"
       x="160.39221"
       y="91.339493"
       transform="matrix(0.73402002,0.67912784,-0.73402002,0.67912784,0,0)"
       ry="1.7903153"
       inkscape:export-filename="J:\Lernende\Collet_Nolan\Arbeitsordner\_Abklaerung\CsUndSql\Other\SearchIconMainOnly.png"
       inkscape:export-xdpi="4.1022806"
       inkscape:export-ydpi="4.1022806" />
  </g>
  <g
     inkscape:groupmode="layer"
     id="layer2"
     inkscape:label="top"
     transform="translate(2.4381273,-84.750491)" />
</svg>
